{
	"FECHA_CREACION": "2023-05-12T16:43:37.000Z",
	"FECHA_MODIFICACION": "2023-05-12T16:57:48.000Z",
	"DESCRIPCION": "MEMO",
	"USUARIO_CREADOR": "GMONTESINOS",
	"TIPO_DOCUMENTO": "EX",
	"ID_WORKFLOW": "solicitud.100150788",
	"ANIO": 2023,
	"NUMERO": 991,
	"CODIGO_REPARTICION_ACTUACION": "PROVINCIAS",
	"CODIGO_REPARTICION_USUARIO": "CGP#MEI",
	"SOLICITUD_INICIADORA": 1616779,
	"ESTADO": "Tramitación",
	"SISTEMA_CREADOR": "EE",
	"ASSIGNEE_EE": "GMONTESINOS",
	"CODIGO_TRATA": "GENE00004",
	"DOCUMENTOS": [
		{
			"NUMERO_SADE": "PV-2023-00000992-PROVINCIAS-CGP#MEI",
			"MOTIVO": "Carátula",
			"POSICION": 0,
			"FECHA_CREACION_DOCUMENTO": "2023-05-12T16:43:37.000Z",
			"FECHA_ASOCIACION": "2023-05-12T16:43:44.000Z"
		},
		{
			"NUMERO_SADE": "ME-2023-00000993-PROVINCIAS-CGP#MEI",
			"MOTIVO": "Comunicación EX-2023-00000991-   -PROVINCIAS-CGP#MEI",
			"POSICION": 1,
			"FECHA_CREACION_DOCUMENTO": "2023-05-12T16:57:41.000Z",
			"FECHA_ASOCIACION": "2023-05-12T16:57:41.000Z"
		},
		{
			"NUMERO_SADE": "PV-2023-00000994-PROVINCIAS-CGP#MEI",
			"MOTIVO": "Pase",
			"POSICION": 2,
			"FECHA_CREACION_DOCUMENTO": "2023-05-12T16:57:48.000Z",
			"FECHA_ASOCIACION": "2023-05-12T16:57:48.000Z"
		}
	],
	"PASES": [
		{
			"ORD_HIST": 2,
			"MOTIVO": "HDJKHFJKSDHDJKHJK",
			"REMITENTE": "GMONTESINOS",
			"DESTINATARIO": "GMONTESINOS",
			"CODIGO_REPARTICION_DESTINO": "CGP#MEI",
			"CODIGO_REPARTICION_ORIGEN": "CGP#MEI",
			"DESCRIPCION_REPARTICION_ORIGEN": "Contaduría General de la Provincia",
			"TIPO_OPERACION": "Pase",
			"FECHA_PASE": "2023-05-12T16:57:48.000Z",
			"DESCRIPCION_REPARTICION_DESTIN": "Contaduría General de la Provincia"
		},
		{
			"ORD_HIST": 1,
			"MOTIVO": "PRUEBA MEMO CGI",
			"REMITENTE": "GMONTESINOS",
			"DESTINATARIO": "GMONTESINOS",
			"CODIGO_REPARTICION_DESTINO": "CGP#MEI",
			"CODIGO_REPARTICION_ORIGEN": "CGP#MEI",
			"DESCRIPCION_REPARTICION_ORIGEN": "Contaduría General de la Provincia",
			"TIPO_OPERACION": "Pase",
			"FECHA_PASE": "2023-05-12T16:43:44.000Z",
			"DESCRIPCION_REPARTICION_DESTIN": "Contaduría General de la Provincia"
		}
	]
}